{"code":200,"msg":"","data":[{"performanceId":146578,"ticketStatus":2,"categoryId":0,"shopId":4064977,"shopUUId":null,"name":"\u3010\u6F14\u51FA\u53D8\u66F4\u3011\u9648\u5955\u8FC5 \u201CFear and Dreams\u201D \u4E16\u754C\u5DE1\u56DE\u6F14\u5531\u4F1A-\u4E0A\u6D77\u7AD9","shopName":"\u6885\u8D5B\u5FB7\u65AF-\u5954\u9A70\u6587\u5316\u4E2D\u5FC3","lat":31.18895149230957,"lng":121.49320220947266,"address":"\u4E16\u535A\u5927\u90531200\u53F7","posterUrl":"https://p0.meituan.net/myvideodistribute/e4138d6d8878113cf85caa0c244ea47f1065545.jpg","postUrlForShare":"https://p0.meituan.net/64.64/myvideodistribute/e4138d6d8878113cf85caa0c244ea47f1065545.jpg@64w_64h_1e_1c_1l","showTimeRange":"2020.4.10 - 2020.4.19","priceRange":"780-2580","seatUrl":null,"limit":false,"inventoryCount":0,"tipForList":null,"performanceLabelVO":{"priceLabel":0,"contentLabel":0,"saleLabel":2},"detail":null,"travelGuide":false,"summary":null,"ticketNotes":null,"cityId":1,"cityName":"\u4E0A\u6D77","lowestPrice":780,"lowestTicketPrice":null,"lowestSellPrice":null,"performanceTag":null,"minDiscount":null,"seatType":0,"saleRemindVO":null,"shareLink":"https://show.maoyan.com/qqw/detail?id=146578&fromTag=gwlshare","stockOutRegister":1,"needAnswer":0,"questionBankId":0,"questionHint":null,"isCurrentCity":1,"distance":0.0,"poi":"121.49320220947266:31.18895149230957","self":true,"thirdPartyDesc":null,"bsPerformanceId":0,"tpId":3126,"needPreInput":false,"kingHonorParam":null,"needRemindPrice":false,"ticketPriceList":null,"currentLimit":false,"modelStyle":0,"only":false,"needRealName":false,"maxBuyLimitPerId":0,"generalAgent":0,"exclusive":0,"maxBuyLimitPerOrder":0,"maxBuyLimitPerUser":0,"projectVideoVO":null,"isAssemble":null,"projectDetailAssembleVO":null,"priceRangeType":0,"projectExtendVO":{"projectId":146578,"maxDiscSetTicketId":0,"maxDiscSetValue":null,"maxDiscSetTicketPrice":null,"maxDiscSetTicketSellPrice":null,"maxDiscTicketSetNumber":0,"maxDiscSingleValue":null,"maxDiscSingleTicketId":0,"maxDiscSingleTicketPrice":null,"maxDiscSingleTicketSellPrice":null,"activityId":null,"maxDiscAssembleTicketId":0,"maxDiscAssemblePrice":null,"maxDiscAssembleValue":null,"maxDiscAssembleTicketSellPrice":null,"maxDiscAssembleTicketPrice":null},"preview":false,"shareTitle":null,"promotional":null,"needCloseDetail":false,"needCloseRecommend":false,"brightPointList":null,"photoStageList":null,"videoList":null,"musicList":null,"serviceTitleList":null,"buttonToast":null,"brightName":null,"videoStageName":null,"videoStagePhotoTotal":null,"videoNum":0,"photoNum":0,"projectServing":null,"projectStartTime":null,"robType":null,"celebrityVOS":null,"memberInfo":null,"intendedNum":0,"reachRobStandard":false,"unusualSaleStatus":0,"relievedTagVO":null,"kingHonorFlag":false},{"performanceId":148770,"ticketStatus":2,"categoryId":0,"shopId":1899565,"shopUUId":null,"name":"\u98CE\u9761\u7235\u58EB\u4E50\u575B\u60C5\u8C03\u5973\u738BKaren Souza\u51EF\u4F26\u7D22\u8428\u300ALanguage Of Love\u300B\u6F14\u5531\u4F1A","shopName":"\u4E0A\u6D77\u4E1C\u65B9\u827A\u672F\u4E2D\u5FC3","lat":31.22252655029297,"lng":121.5406723022461,"address":"\u4E0A\u6D77\u5E02\u6D66\u4E1C\u65B0\u533A\u4E01\u9999\u8DEF425\u53F7","posterUrl":"https://p1.meituan.net/myvideodistribute/f3801873496c4fd86349e6c32937ad78144621.jpg","postUrlForShare":"https://p1.meituan.net/64.64/myvideodistribute/f3801873496c4fd86349e6c32937ad78144621.jpg@64w_64h_1e_1c_1l","showTimeRange":"2020.4.25 19:30 \u5468\u516D","priceRange":"120-580","seatUrl":null,"limit":false,"inventoryCount":0,"tipForList":null,"performanceLabelVO":{"priceLabel":0,"contentLabel":0,"saleLabel":2},"detail":null,"travelGuide":false,"summary":null,"ticketNotes":null,"cityId":1,"cityName":"\u4E0A\u6D77","lowestPrice":120,"lowestTicketPrice":null,"lowestSellPrice":null,"performanceTag":null,"minDiscount":"8.3","seatType":0,"saleRemindVO":null,"shareLink":"https://show.maoyan.com/qqw/detail?id=148770&fromTag=gwlshare","stockOutRegister":1,"needAnswer":0,"questionBankId":0,"questionHint":null,"isCurrentCity":1,"distance":0.0,"poi":"121.5406723022461:31.22252655029297","self":true,"thirdPartyDesc":null,"bsPerformanceId":0,"tpId":84,"needPreInput":false,"kingHonorParam":null,"needRemindPrice":false,"ticketPriceList":null,"currentLimit":false,"modelStyle":0,"only":false,"needRealName":false,"maxBuyLimitPerId":0,"generalAgent":0,"exclusive":0,"maxBuyLimitPerOrder":0,"maxBuyLimitPerUser":0,"projectVideoVO":null,"isAssemble":null,"projectDetailAssembleVO":null,"priceRangeType":0,"projectExtendVO":{"projectId":148770,"maxDiscSetTicketId":15900359,"maxDiscSetValue":"8.3","maxDiscSetTicketPrice":"180","maxDiscSetTicketSellPrice":"300","maxDiscTicketSetNumber":2,"maxDiscSingleValue":null,"maxDiscSingleTicketId":0,"maxDiscSingleTicketPrice":null,"maxDiscSingleTicketSellPrice":null,"activityId":null,"maxDiscAssembleTicketId":0,"maxDiscAssemblePrice":null,"maxDiscAssembleValue":null,"maxDiscAssembleTicketSellPrice":null,"maxDiscAssembleTicketPrice":null},"preview":false,"shareTitle":null,"promotional":null,"needCloseDetail":false,"needCloseRecommend":false,"brightPointList":null,"photoStageList":null,"videoList":null,"musicList":null,"serviceTitleList":null,"buttonToast":null,"brightName":null,"videoStageName":null,"videoStagePhotoTotal":null,"videoNum":0,"photoNum":0,"projectServing":null,"projectStartTime":null,"robType":null,"celebrityVOS":null,"memberInfo":null,"intendedNum":0,"reachRobStandard":false,"unusualSaleStatus":0,"relievedTagVO":null,"kingHonorFlag":false},{"performanceId":145778,"ticketStatus":2,"categoryId":0,"shopId":58068742,"shopUUId":null,"name":"\u3010\u6F14\u51FA\u53D6\u6D88\u3011H\u25B3G\u9B54\u5973\u4E4B\u62E5\u5DE1\u6F14-\u4E0A\u6D77\u7AD9","shopName":"MAO Livehouse\u4E0A\u6D77","lat":31.209951400756836,"lng":121.47190856933594,"address":"\u91CD\u5E86\u5357\u8DEF308\u53F73\u697C","posterUrl":"https://p1.meituan.net/myvideodistribute/b25a7808401c44ef039c7f777b3b0f3f4870198.png","postUrlForShare":"https://p1.meituan.net/64.64/myvideodistribute/b25a7808401c44ef039c7f777b3b0f3f4870198.png@64w_64h_1e_1c_1l","showTimeRange":"2020.3.29 18:00 \u5468\u65E5","priceRange":"350-680","seatUrl":null,"limit":false,"inventoryCount":0,"tipForList":null,"performanceLabelVO":{"priceLabel":0,"contentLabel":0,"saleLabel":2},"detail":null,"travelGuide":false,"summary":null,"ticketNotes":null,"cityId":1,"cityName":"\u4E0A\u6D77","lowestPrice":350,"lowestTicketPrice":null,"lowestSellPrice":null,"performanceTag":null,"minDiscount":null,"seatType":0,"saleRemindVO":null,"shareLink":"https://show.maoyan.com/qqw/detail?id=145778&fromTag=gwlshare","stockOutRegister":1,"needAnswer":0,"questionBankId":0,"questionHint":null,"isCurrentCity":1,"distance":0.0,"poi":"121.47190856933594:31.209951400756836","self":true,"thirdPartyDesc":null,"bsPerformanceId":0,"tpId":2695,"needPreInput":false,"kingHonorParam":null,"needRemindPrice":false,"ticketPriceList":null,"currentLimit":false,"modelStyle":0,"only":false,"needRealName":false,"maxBuyLimitPerId":0,"generalAgent":0,"exclusive":0,"maxBuyLimitPerOrder":0,"maxBuyLimitPerUser":0,"projectVideoVO":null,"isAssemble":null,"projectDetailAssembleVO":null,"priceRangeType":0,"projectExtendVO":{"projectId":145778,"maxDiscSetTicketId":0,"maxDiscSetValue":null,"maxDiscSetTicketPrice":null,"maxDiscSetTicketSellPrice":null,"maxDiscTicketSetNumber":0,"maxDiscSingleValue":null,"maxDiscSingleTicketId":0,"maxDiscSingleTicketPrice":null,"maxDiscSingleTicketSellPrice":null,"activityId":null,"maxDiscAssembleTicketId":0,"maxDiscAssemblePrice":null,"maxDiscAssembleValue":null,"maxDiscAssembleTicketSellPrice":null,"maxDiscAssembleTicketPrice":null},"preview":false,"shareTitle":null,"promotional":null,"needCloseDetail":false,"needCloseRecommend":false,"brightPointList":null,"photoStageList":null,"videoList":null,"musicList":null,"serviceTitleList":null,"buttonToast":null,"brightName":null,"videoStageName":null,"videoStagePhotoTotal":null,"videoNum":0,"photoNum":0,"projectServing":null,"projectStartTime":null,"robType":null,"celebrityVOS":null,"memberInfo":null,"intendedNum":0,"reachRobStandard":false,"unusualSaleStatus":0,"relievedTagVO":null,"kingHonorFlag":false},{"performanceId":148111,"ticketStatus":2,"categoryId":0,"shopId":132225302,"shopUUId":null,"name":"\u3010\u6F14\u51FA\u53D8\u66F4\u3011JJ \u6797\u4FCA\u6770\u300A\u5723\u6240\uFF1AWONDERLAND\u300B\u4E16\u754C\u5DE1\u56DE\u6F14\u5531\u4F1A \u4E0A\u6D77\u7AD9","shopName":"\u4E0A\u6D77\u8679\u53E3\u8DB3\u7403\u573A","lat":31.271336,"lng":121.480714,"address":"\u4E1C\u6C5F\u6E7E\u8DEF444\u53F7","posterUrl":"https://p0.meituan.net/myvideodistribute/5cac2314ca42847878cf875b936e41321217978.jpg","postUrlForShare":"https://p0.meituan.net/64.64/myvideodistribute/5cac2314ca42847878cf875b936e41321217978.jpg@64w_64h_1e_1c_1l","showTimeRange":"2020.3.28 / 3.29","priceRange":"380-1680","seatUrl":null,"limit":false,"inventoryCount":0,"tipForList":null,"performanceLabelVO":{"priceLabel":0,"contentLabel":0,"saleLabel":2},"detail":null,"travelGuide":false,"summary":null,"ticketNotes":null,"cityId":1,"cityName":"\u4E0A\u6D77","lowestPrice":380,"lowestTicketPrice":null,"lowestSellPrice":null,"performanceTag":null,"minDiscount":null,"seatType":0,"saleRemindVO":null,"shareLink":"https://show.maoyan.com/qqw/detail?id=148111&fromTag=gwlshare","stockOutRegister":1,"needAnswer":0,"questionBankId":32,"questionHint":"\u4E09\u9053\u9898\u76EE\u5168\u90E8\u7B54\u5BF9\u624D\u53EF\u4EE5\u8D2D\u4E70","isCurrentCity":1,"distance":0.0,"poi":"0.0:0.0","self":true,"thirdPartyDesc":null,"bsPerformanceId":0,"tpId":3126,"needPreInput":false,"kingHonorParam":null,"needRemindPrice":false,"ticketPriceList":null,"currentLimit":false,"modelStyle":0,"only":false,"needRealName":false,"maxBuyLimitPerId":0,"generalAgent":0,"exclusive":0,"maxBuyLimitPerOrder":0,"maxBuyLimitPerUser":0,"projectVideoVO":null,"isAssemble":null,"projectDetailAssembleVO":null,"priceRangeType":0,"projectExtendVO":{"projectId":148111,"maxDiscSetTicketId":0,"maxDiscSetValue":null,"maxDiscSetTicketPrice":null,"maxDiscSetTicketSellPrice":null,"maxDiscTicketSetNumber":0,"maxDiscSingleValue":null,"maxDiscSingleTicketId":0,"maxDiscSingleTicketPrice":null,"maxDiscSingleTicketSellPrice":null,"activityId":null,"maxDiscAssembleTicketId":0,"maxDiscAssemblePrice":null,"maxDiscAssembleValue":null,"maxDiscAssembleTicketSellPrice":null,"maxDiscAssembleTicketPrice":null},"preview":false,"shareTitle":null,"promotional":null,"needCloseDetail":false,"needCloseRecommend":false,"brightPointList":null,"photoStageList":null,"videoList":null,"musicList":null,"serviceTitleList":null,"buttonToast":null,"brightName":null,"videoStageName":null,"videoStagePhotoTotal":null,"videoNum":0,"photoNum":0,"projectServing":null,"projectStartTime":null,"robType":null,"celebrityVOS":null,"memberInfo":null,"intendedNum":0,"reachRobStandard":false,"unusualSaleStatus":0,"relievedTagVO":null,"kingHonorFlag":false},{"performanceId":147213,"ticketStatus":1,"categoryId":0,"shopId":107761768,"shopUUId":null,"name":"\u3010\u6F14\u51FA\u53D8\u66F4\u3011\u66F9\u8F69\u5BBE\u300C\u6211\u300D2020\u5E74\u5DE1\u56DE\u6F14\u5531\u4F1A \u4E0A\u6D77\u7AD9","shopName":"\u80B2\u97F3\u5802\u97F3\u4E50\u516C\u56ED","lat":31.219139099121094,"lng":121.42225646972656,"address":"\u611A\u56ED\u8DEF1398\u53F7\u7C73\u57DF\u00B7\u8FD9\u91CC\u5730\u4E0B1\u5C4202\u53F7","posterUrl":"https://p0.meituan.net/myvideodistribute/b989d2d61d821f26d679b377307c787c2305258.jpg","postUrlForShare":"https://p0.meituan.net/64.64/myvideodistribute/b989d2d61d821f26d679b377307c787c2305258.jpg@64w_64h_1e_1c_1l","showTimeRange":"2020.9.18 20:30 \u5468\u4E94","priceRange":"150","seatUrl":null,"limit":false,"inventoryCount":0,"tipForList":null,"performanceLabelVO":{"priceLabel":0,"contentLabel":0,"saleLabel":1},"detail":null,"travelGuide":false,"summary":null,"ticketNotes":null,"cityId":1,"cityName":"\u4E0A\u6D77","lowestPrice":150,"lowestTicketPrice":null,"lowestSellPrice":null,"performanceTag":null,"minDiscount":null,"seatType":0,"saleRemindVO":null,"shareLink":"https://show.maoyan.com/qqw/detail?id=147213&fromTag=gwlshare","stockOutRegister":1,"needAnswer":0,"questionBankId":0,"questionHint":null,"isCurrentCity":1,"distance":0.0,"poi":"121.42225646972656:31.219139099121094","self":true,"thirdPartyDesc":null,"bsPerformanceId":0,"tpId":2244,"needPreInput":false,"kingHonorParam":null,"needRemindPrice":false,"ticketPriceList":null,"currentLimit":false,"modelStyle":0,"only":false,"needRealName":false,"maxBuyLimitPerId":0,"generalAgent":0,"exclusive":0,"maxBuyLimitPerOrder":0,"maxBuyLimitPerUser":0,"projectVideoVO":null,"isAssemble":null,"projectDetailAssembleVO":null,"priceRangeType":0,"projectExtendVO":{"projectId":147213,"maxDiscSetTicketId":0,"maxDiscSetValue":null,"maxDiscSetTicketPrice":null,"maxDiscSetTicketSellPrice":null,"maxDiscTicketSetNumber":0,"maxDiscSingleValue":null,"maxDiscSingleTicketId":0,"maxDiscSingleTicketPrice":null,"maxDiscSingleTicketSellPrice":null,"activityId":null,"maxDiscAssembleTicketId":0,"maxDiscAssemblePrice":null,"maxDiscAssembleValue":null,"maxDiscAssembleTicketSellPrice":null,"maxDiscAssembleTicketPrice":null},"preview":false,"shareTitle":null,"promotional":null,"needCloseDetail":false,"needCloseRecommend":false,"brightPointList":null,"photoStageList":null,"videoList":null,"musicList":null,"serviceTitleList":null,"buttonToast":null,"brightName":null,"videoStageName":null,"videoStagePhotoTotal":null,"videoNum":0,"photoNum":0,"projectServing":null,"projectStartTime":null,"robType":null,"celebrityVOS":null,"memberInfo":null,"intendedNum":0,"reachRobStandard":false,"unusualSaleStatus":0,"relievedTagVO":null,"kingHonorFlag":false},{"performanceId":146388,"ticketStatus":3,"categoryId":0,"shopId":58068742,"shopUUId":null,"name":"\u3010\u6F14\u51FA\u53D6\u6D88\u3011\u3010\u4E0A\u6D77\u3011Greg Laswell 2020 \u4E2D\u56FD\u5DE1\u6F14","shopName":"MAO Livehouse\u4E0A\u6D77","lat":31.209951400756836,"lng":121.47190856933594,"address":"\u91CD\u5E86\u5357\u8DEF308\u53F73\u697C","posterUrl":"https://p0.meituan.net/myvideodistribute/f8272beefbe0ccbb1e7b73209a347ae0576552.png","postUrlForShare":"https://p0.meituan.net/64.64/myvideodistribute/f8272beefbe0ccbb1e7b73209a347ae0576552.png@64w_64h_1e_1c_1l","showTimeRange":"2020.3.27 20:30 \u5468\u4E94","priceRange":"240","seatUrl":null,"limit":false,"inventoryCount":0,"tipForList":null,"performanceLabelVO":{"priceLabel":0,"contentLabel":0,"saleLabel":3},"detail":null,"travelGuide":false,"summary":null,"ticketNotes":null,"cityId":1,"cityName":"\u4E0A\u6D77","lowestPrice":240,"lowestTicketPrice":null,"lowestSellPrice":null,"performanceTag":null,"minDiscount":null,"seatType":0,"saleRemindVO":null,"shareLink":"https://show.maoyan.com/qqw/detail?id=146388&fromTag=gwlshare","stockOutRegister":1,"needAnswer":0,"questionBankId":0,"questionHint":null,"isCurrentCity":1,"distance":0.0,"poi":"121.47190856933594:31.209951400756836","self":true,"thirdPartyDesc":null,"bsPerformanceId":0,"tpId":3120,"needPreInput":false,"kingHonorParam":null,"needRemindPrice":false,"ticketPriceList":null,"currentLimit":false,"modelStyle":0,"only":false,"needRealName":false,"maxBuyLimitPerId":0,"generalAgent":0,"exclusive":0,"maxBuyLimitPerOrder":0,"maxBuyLimitPerUser":0,"projectVideoVO":null,"isAssemble":null,"projectDetailAssembleVO":null,"priceRangeType":0,"projectExtendVO":{"projectId":146388,"maxDiscSetTicketId":0,"maxDiscSetValue":null,"maxDiscSetTicketPrice":null,"maxDiscSetTicketSellPrice":null,"maxDiscTicketSetNumber":0,"maxDiscSingleValue":null,"maxDiscSingleTicketId":0,"maxDiscSingleTicketPrice":null,"maxDiscSingleTicketSellPrice":null,"activityId":null,"maxDiscAssembleTicketId":0,"maxDiscAssemblePrice":null,"maxDiscAssembleValue":null,"maxDiscAssembleTicketSellPrice":null,"maxDiscAssembleTicketPrice":null},"preview":false,"shareTitle":null,"promotional":null,"needCloseDetail":false,"needCloseRecommend":false,"brightPointList":null,"photoStageList":null,"videoList":null,"musicList":null,"serviceTitleList":null,"buttonToast":null,"brightName":null,"videoStageName":null,"videoStagePhotoTotal":null,"videoNum":0,"photoNum":0,"projectServing":null,"projectStartTime":null,"robType":null,"celebrityVOS":null,"memberInfo":null,"intendedNum":0,"reachRobStandard":false,"unusualSaleStatus":0,"relievedTagVO":null,"kingHonorFlag":false},{"performanceId":143840,"ticketStatus":3,"categoryId":0,"shopId":58068742,"shopUUId":null,"name":"\u3010\u6F14\u51FA\u53D8\u66F4\u3011\u300A LARA \u6881\u5FC3\u9890 - HOME \u6F14\u5531\u4F1A\u300B-\u4E0A\u6D77\u7AD9","shopName":"MAO Livehouse\u4E0A\u6D77","lat":31.209951400756836,"lng":121.47190856933594,"address":"\u91CD\u5E86\u5357\u8DEF308\u53F73\u697C","posterUrl":"https://p1.meituan.net/myvideodistribute/825bcbd76fbeca242b3f77821c4d8ff0157738.jpg","postUrlForShare":"https://p1.meituan.net/64.64/myvideodistribute/825bcbd76fbeca242b3f77821c4d8ff0157738.jpg@64w_64h_1e_1c_1l","showTimeRange":"2020.3.28 19:30 \u5468\u516D","priceRange":"220","seatUrl":null,"limit":false,"inventoryCount":0,"tipForList":null,"performanceLabelVO":{"priceLabel":0,"contentLabel":0,"saleLabel":3},"detail":null,"travelGuide":false,"summary":null,"ticketNotes":null,"cityId":1,"cityName":"\u4E0A\u6D77","lowestPrice":220,"lowestTicketPrice":null,"lowestSellPrice":null,"performanceTag":null,"minDiscount":null,"seatType":0,"saleRemindVO":null,"shareLink":"https://show.maoyan.com/qqw/detail?id=143840&fromTag=gwlshare","stockOutRegister":1,"needAnswer":0,"questionBankId":0,"questionHint":null,"isCurrentCity":1,"distance":0.0,"poi":"121.47190856933594:31.209951400756836","self":true,"thirdPartyDesc":null,"bsPerformanceId":0,"tpId":59,"needPreInput":false,"kingHonorParam":null,"needRemindPrice":false,"ticketPriceList":null,"currentLimit":false,"modelStyle":0,"only":false,"needRealName":false,"maxBuyLimitPerId":0,"generalAgent":0,"exclusive":0,"maxBuyLimitPerOrder":0,"maxBuyLimitPerUser":0,"projectVideoVO":null,"isAssemble":null,"projectDetailAssembleVO":null,"priceRangeType":0,"projectExtendVO":{"projectId":143840,"maxDiscSetTicketId":0,"maxDiscSetValue":null,"maxDiscSetTicketPrice":null,"maxDiscSetTicketSellPrice":null,"maxDiscTicketSetNumber":0,"maxDiscSingleValue":null,"maxDiscSingleTicketId":0,"maxDiscSingleTicketPrice":null,"maxDiscSingleTicketSellPrice":null,"activityId":null,"maxDiscAssembleTicketId":0,"maxDiscAssemblePrice":null,"maxDiscAssembleValue":null,"maxDiscAssembleTicketSellPrice":null,"maxDiscAssembleTicketPrice":null},"preview":false,"shareTitle":null,"promotional":null,"needCloseDetail":false,"needCloseRecommend":false,"brightPointList":null,"photoStageList":null,"videoList":null,"musicList":null,"serviceTitleList":null,"buttonToast":null,"brightName":null,"videoStageName":null,"videoStagePhotoTotal":null,"videoNum":0,"photoNum":0,"projectServing":null,"projectStartTime":null,"robType":null,"celebrityVOS":null,"memberInfo":null,"intendedNum":0,"reachRobStandard":false,"unusualSaleStatus":0,"relievedTagVO":null,"kingHonorFlag":false},{"performanceId":141958,"ticketStatus":3,"categoryId":0,"shopId":67313755,"shopUUId":null,"name":"\u3010\u6F14\u51FA\u53D8\u66F4\u3011\u300A\u591C\u4E0A\u6D77\u300B\u2014\u2014\u6D77\u4E4B\u82B1\u4E0A\u6D77\u8001\u6B4C\u6F14\u5531\u4F1A","shopName":"\u8C6B\u00B7\u4E0A\u6D77\u5267\u9662","lat":31.22686004638672,"lng":121.49085998535156,"address":"\u65E7\u6821\u573A\u8DEF69\u53F7","posterUrl":"https://p1.meituan.net/myvideodistribute/b37cd19f75cfa4b8dc32892b866e7e93739766.jpg","postUrlForShare":"https://p1.meituan.net/64.64/myvideodistribute/b37cd19f75cfa4b8dc32892b866e7e93739766.jpg@64w_64h_1e_1c_1l","showTimeRange":"2020.5.31 13:30 \u5468\u65E5","priceRange":"100-680","seatUrl":null,"limit":false,"inventoryCount":0,"tipForList":null,"performanceLabelVO":{"priceLabel":0,"contentLabel":0,"saleLabel":3},"detail":null,"travelGuide":false,"summary":null,"ticketNotes":null,"cityId":1,"cityName":"\u4E0A\u6D77","lowestPrice":100,"lowestTicketPrice":null,"lowestSellPrice":null,"performanceTag":null,"minDiscount":"5","seatType":0,"saleRemindVO":null,"shareLink":"https://show.maoyan.com/qqw/detail?id=141958&fromTag=gwlshare","stockOutRegister":1,"needAnswer":0,"questionBankId":0,"questionHint":null,"isCurrentCity":1,"distance":0.0,"poi":"121.49085998535156:31.22686004638672","self":true,"thirdPartyDesc":null,"bsPerformanceId":0,"tpId":2200,"needPreInput":false,"kingHonorParam":null,"needRemindPrice":false,"ticketPriceList":null,"currentLimit":false,"modelStyle":0,"only":false,"needRealName":false,"maxBuyLimitPerId":0,"generalAgent":0,"exclusive":0,"maxBuyLimitPerOrder":0,"maxBuyLimitPerUser":0,"projectVideoVO":null,"isAssemble":null,"projectDetailAssembleVO":null,"priceRangeType":0,"projectExtendVO":{"projectId":141958,"maxDiscSetTicketId":15882004,"maxDiscSetValue":"5","maxDiscSetTicketPrice":"580","maxDiscSetTicketSellPrice":"580","maxDiscTicketSetNumber":2,"maxDiscSingleValue":null,"maxDiscSingleTicketId":0,"maxDiscSingleTicketPrice":null,"maxDiscSingleTicketSellPrice":null,"activityId":null,"maxDiscAssembleTicketId":0,"maxDiscAssemblePrice":null,"maxDiscAssembleValue":null,"maxDiscAssembleTicketSellPrice":null,"maxDiscAssembleTicketPrice":null},"preview":false,"shareTitle":null,"promotional":null,"needCloseDetail":false,"needCloseRecommend":false,"brightPointList":null,"photoStageList":null,"videoList":null,"musicList":null,"serviceTitleList":null,"buttonToast":null,"brightName":null,"videoStageName":null,"videoStagePhotoTotal":null,"videoNum":0,"photoNum":0,"projectServing":null,"projectStartTime":null,"robType":null,"celebrityVOS":null,"memberInfo":null,"intendedNum":0,"reachRobStandard":false,"unusualSaleStatus":0,"relievedTagVO":null,"kingHonorFlag":false}],"paging":{"pageNo":1,"pageSize":8,"totalHits":10,"hasMore":true},"attrMaps":{"serverTime":1585031791634},"success":true}